{
  "todos": [
    {
      "name": "This career affords me flexibility and freedom.",
      "isComplete": false,
      "id": 1
    },
    {
      "name": "It's fun to learn and apply something new everyday.",
      "isComplete": false,
      "id": 2
    },
    {
      "name": "The frustrations and fear decrease with time.",
      "isComplete": true,
      "id": 3
    },
    {
      "name": "It's exciting to realize that in 3 - 5 years I'll be able to create anything.",
      "isComplete": false,
      "id": 4
    }
  ]
}